%YAML 1.1
%TAG !u! tag:unity3d.com,2011:
--- !u!114 &11400000
MonoBehaviour:
  m_ObjectHideFlags: 0
  m_PrefabParentObject: {fileID: 0}
  m_PrefabInternal: {fileID: 0}
  m_GameObject: {fileID: 0}
  m_Enabled: 1
  m_EditorHideFlags: 0
  m_Script: {fileID: 11500000, guid: 9ba6d3094cf27f44781e52d9fd92adab, type: 3}
  m_Name: WeatherMakerCloudProfile_Medium
  m_EditorClassIdentifier: 
  CloudNoise: {fileID: 2800000, guid: 21f2efbf25fb715498d924b2f7050c10, type: 3}
  CloudNoise2: {fileID: 2800000, guid: c1ddb517f287d8a4ba3512e17a9313b4, type: 3}
  CloudNoise3: {fileID: 0}
  CloudNoise4: {fileID: 0}
  CloudNoiseScale: {x: 0.0002, y: 0.0003, z: 0.0005, w: 0.0007}
  CloudNoiseScale2: {x: 0.0004, y: 0.0003, z: 0.0002, w: 0.0001}
  CloudNoiseScale3: {x: 0, y: 0, z: 0, w: 0}
  CloudNoiseScale4: {x: 0, y: 0, z: 0, w: 0}
  CloudNoiseMultiplier: {x: 0.7, y: 0.15, z: 0.1, w: 0.05}
  CloudNoiseMultiplier2: {x: 0.6, y: 0.2, z: 0.15, w: 0.05}
  CloudNoiseMultiplier3: {x: 1, y: 0, z: 0, w: 0}
  CloudNoiseMultiplier4: {x: 1, y: 0, z: 0, w: 0}
  CloudNoiseRotation:
    Minimum: 0
    Maximum: 0
  CloudNoiseRotation2:
    Minimum: 0
    Maximum: 0
  CloudNoiseRotation3:
    Minimum: 0
    Maximum: 0
  CloudNoiseRotation4:
    Minimum: 0
    Maximum: 0
  CloudNoiseVelocity: {x: 0.01, y: 0, z: 0.03}
  CloudNoiseVelocity2: {x: -0.08, y: 0, z: 0.05}
  CloudNoiseVelocity3: {x: 0, y: 0, z: 0}
  CloudNoiseVelocity4: {x: 0, y: 0, z: 0}
  CloudNoiseMask: {fileID: 0}
  CloudNoiseMask2: {fileID: 0}
  CloudNoiseMask3: {fileID: 0}
  CloudNoiseMask4: {fileID: 0}
  CloudNoiseMaskScale: 0.5
  CloudNoiseMaskScale2: 0.5
  CloudNoiseMaskScale3: 0.5
  CloudNoiseMaskScale4: 0.5
  CloudNoiseMaskRotation:
    Minimum: 0
    Maximum: 0
  CloudNoiseMaskRotation2:
    Minimum: 0
    Maximum: 0
  CloudNoiseMaskRotation3:
    Minimum: 0
    Maximum: 0
  CloudNoiseMaskRotation4:
    Minimum: 0
    Maximum: 0
  CloudNoiseMaskOffset: {x: 0, y: 0}
  CloudNoiseMaskOffset2: {x: 0, y: 0}
  CloudNoiseMaskOffset3: {x: 0, y: 0}
  CloudNoiseMaskOffset4: {x: 0, y: 0}
  CloudNoiseMaskVelocity: {x: 0, y: 0, z: 0}
  CloudNoiseMaskVelocity2: {x: 0, y: 0, z: 0}
  CloudNoiseMaskVelocity3: {x: 0, y: 0, z: 0}
  CloudNoiseMaskVelocity4: {x: 0, y: 0, z: 0}
  CloudColor: {r: 1, g: 1, b: 1, a: 1}
  CloudColor2: {r: 1, g: 1, b: 1, a: 1}
  CloudColor3: {r: 1, g: 1, b: 1, a: 1}
  CloudColor4: {r: 1, g: 1, b: 1, a: 1}
  CloudEmissionColor: {r: 0, g: 0, b: 0, a: 0}
  CloudEmissionColor2: {r: 0, g: 0, b: 0, a: 0}
  CloudEmissionColor3: {r: 0, g: 0, b: 0, a: 0}
  CloudEmissionColor4: {r: 0, g: 0, b: 0, a: 0}
  CloudHeight: 5000
  CloudHeight2: 10000
  CloudHeight3: 5000
  CloudHeight4: 5000
  CloudCover: 0.333
  CloudCover2: 0.268
  CloudCover3: 0
  CloudCover4: 0
  CloudDensity: 0.1
  CloudDensity2: 0
  CloudDensity3: 0
  CloudDensity4: 0
  CloudLightAbsorption: 0.09
  CloudLightAbsorption2: 1
  CloudLightAbsorption3: 0.013
  CloudLightAbsorption4: 0.013
  CloudSharpness: 0.015
  CloudSharpness2: 0
  CloudSharpness3: 0.015
  CloudSharpness4: 0.015
  CloudShadowThreshold: 0.1
  CloudShadowThreshold2: 0.1
  CloudShadowThreshold3: 0.1
  CloudShadowThreshold4: 0.1
  CloudShadowPower: 0.15
  CloudShadowPower2: 0.5
  CloudShadowPower3: 0.5
  CloudShadowPower4: 0.5
  CloudRayOffset: 0.2
