%YAML 1.1
%TAG !u! tag:unity3d.com,2011:
--- !u!114 &11400000
MonoBehaviour:
  m_ObjectHideFlags: 0
  m_PrefabParentObject: {fileID: 0}
  m_PrefabInternal: {fileID: 0}
  m_GameObject: {fileID: 0}
  m_Enabled: 1
  m_EditorHideFlags: 0
  m_Script: {fileID: 11500000, guid: 434c9ec812775b74ab2bb5fa1e8f04d9, type: 3}
  m_Name: WeatherMakerAmbientSound_Energy
  m_EditorClassIdentifier: 
  Disabled: 0
  Name: Energy Hum
  AudioClips:
  - {fileID: 8300000, guid: 19ea99d66f6480e4db7d015c1024ce97, type: 3}
  Looping: 1
  TimesOfDay: 8
  HoursOfDay: []
  IntervalRange:
    Minimum: 0
    Maximum: 0
  DurationRange:
    Minimum: 0
    Maximum: 0
  VolumeRange:
    Minimum: 0.4
    Maximum: 0.4
  FadeDuration:
    Minimum: 1
    Maximum: 1
